[Event "Deutsche Schachzeitung"]
[Site "?"]
[Date "1968.??.??"]
[Round "-"]
[White "9 AUTHORS"]
[Black "#2"]
[Result "1-0"]
[FEN "8/8/8/8/1Q6/1K6/8/2Nk4 w - - 0 1"]
[SetUp "1"]

1. Qa5 Kxc1 2. Qe1# 1-0