{
  "profiles": {
    "PuzzleApi": {
      "commandName": "Project",
      "launchBrowser": false,
      "environmentVariables": {
        "ASPNETCORE_ENVIRONMENT": "Development"
      },
      "nativeDebugging": false,
      "applicationUrl": "http://localhost:8000"
    }
  }
}
